{
	"process_id" : 996,
	"version" : "2020.1.17f1",
	"app_path" : "/Applications/Unity/Hub/Editor/2020.1.17f1/Unity.app",
	"app_contents_path" : "/Applications/Unity/Hub/Editor/2020.1.17f1/Unity.app/Contents"
}